<?xml version="1.0" encoding="utf-8"?>
<!-- Generator: Adobe Illustrator 22.1.0, SVG Export Plug-In . SVG Version: 6.00 Build 0)  -->
<svg version="1.1" id="Слой_1" xmlns="http://www.w3.org/2000/svg" xmlns:xlink="http://www.w3.org/1999/xlink" x="0px" y="0px"
	 viewBox="0 0 96 66.2" style="enable-background:new 0 0 96 66.2;" xml:space="preserve">
<style type="text/css">
	.st0{fill:#AFD755;}
</style>
<path class="st0" d="M96.1,26.1l-0.8-1.7c-0.1-0.2-0.3-0.4-0.5-0.5l-9.1-5.1c-0.5-0.3-1-0.2-1.4,0.1l-0.7,0.6L81,16.7
	c-0.3-0.4-0.8-0.5-1.3-0.4l-3.5,1l-2.4-1.5c-0.5-0.3-1-0.3-1.5,0.1l-0.7,0.5l-1.3-6.2c-0.1-0.6-0.6-1-1.2-1H65l-0.4-1.6L65,7.5
	c0.6-0.3,0.9-0.9,0.7-1.5l-0.5-1.3l-2.1-3.7c-0.2-0.3-0.5-0.6-0.9-0.6l-3.3-0.5c-0.3,0-0.7,0-0.9,0.3L56.7,1l-1.5-1
	c-0.4-0.2-0.9-0.3-1.3,0c-0.4,0.2-0.6,0.6-0.6,1.1v1.6l-0.1,0.1L52,2.2c-0.2-0.1-0.4-0.1-0.5-0.1h-3.8c-0.4,0-0.8,0.2-1,0.5
	l-3.1,4.3c-0.2,0.2-0.2,0.5-0.2,0.8c0,0,0,0-0.1,0l-2.4-0.6c-0.3-0.1-0.7,0-0.9,0.1l-0.6,0.4l-0.6-1.2c-0.2-0.4-0.5-0.6-0.9-0.7
	c-0.4-0.1-0.8,0-1.1,0.3l-1.3,1.2L33.8,6c-0.4-0.3-1.1-0.3-1.5,0l-1.8,1.4l-1.3-0.7l-0.3-0.8c-0.1-0.4-0.5-0.7-0.9-0.8L21,3.4
	c-0.1,0-0.3,0-0.4,0L13.2,4c-0.3,0-0.6,0.2-0.8,0.4l-1.6,1.9H9.4c-0.4,0-0.7,0.2-1,0.5C8.2,7.2,8.1,7.6,8.2,7.9l2.1,8.1L9,16.5
	c-0.2,0.1-0.4,0.2-0.6,0.4l-5.2,7.3c-0.3,0.4-0.3,0.8-0.1,1.2l0.7,1.6H3.5c-0.5,0-0.9,0.3-1.1,0.7L0,33c-0.2,0.5-0.1,1.2,0.4,1.5
	l4.4,3.1c0.5,0.3,1.2,0.3,1.6-0.2l0.7-0.7l4.2,1.6c0.3,0.1,0.6,0.1,0.9,0l1.1-0.4l2.1,1.7c0.5,0.4,1.3,0.3,1.7-0.2l1-1.1l4.5-0.7
	c0.4-0.1,0.7-0.3,0.9-0.6l0.5-0.8l1.9-0.6c0.4-0.1,0.7-0.5,0.8-0.9h2.8l5.4,1.6l2.1,2.1l2.4,6.2c0.1,0.3,0.3,0.5,0.5,0.6l1.1,0.7
	v0.9h-3.9c-0.6,0-1.1,0.4-1.2,1l-0.6,3L31.6,55c-0.3,0.3-0.4,0.7-0.3,1c0.1,0.4,0.3,0.7,0.6,0.9l3,1.7c0.4,0.2,1,0.2,1.3-0.1
	l2.2-1.6l1,1.4c0.3,0.4,0.9,0.6,1.4,0.4c0.5-0.2,0.9-0.6,0.9-1.2v-3l3.5-2.9c0.1-0.1,0.2-0.2,0.3-0.4l1.6-3.1h3.3l1.4,3.6
	c0.2,0.6,0.9,0.9,1.5,0.8l4.5-1.1l0.5,1l-3,1.1c-0.3,0.1-0.5,0.3-0.7,0.6L54,55.7c-0.2,0.3-0.2,0.7-0.1,1c0.1,0.3,0.4,0.6,0.8,0.7
	l3.6,1.2c0.1,0,0.3,0.1,0.4,0.1H59l-0.5,3.4c-0.1,0.6,0.2,1.1,0.7,1.3l3.3,1.4c0.2,0.1,0.3,0.1,0.5,0.1c0.4,0,0.8-0.2,1-0.5l2.1-3.1
	h2.2c0.4,0,0.8-0.2,1-0.5l0.9-1.2l1.3,0.4c0.2,0.1,0.4,0.1,0.6,0l2.9-0.6c0.3-0.1,0.6-0.3,0.8-0.6l1.2-2c0.3-0.6,0.2-1.3-0.4-1.7
	l-1.8-1.1c-0.3-0.2-0.6-0.2-0.9-0.2l-4.6,0.9L69,53.6c-0.1-0.3-0.3-0.5-0.5-0.7l-1.9-1.3l4.8-2.8l14-4.4c0.5-0.2,0.9-0.6,0.9-1.2v-2
	l1.1-1.3l4.9-0.8c0.4-0.1,0.7-0.3,0.9-0.6l1.5-2.5c0.1-0.2,0.2-0.4,0.2-0.6v-4.9c0-0.2,0-0.3-0.1-0.5l-0.5-1.1l1.5-1.1
	C96.2,27.3,96.3,26.6,96.1,26.1z M91.5,28.8l0.8,1.8v4.3l-1,1.7l-4.7,0.8c-0.3,0-0.6,0.2-0.7,0.4l-1.7,2c-0.2,0.2-0.3,0.5-0.3,0.8
	v1.6l-13.5,4.3l-4.8,2.8l-2-0.6c-0.5-0.1-1,0-1.4,0.5c-0.3,0.4-0.3,1,0,1.4l1,1.4c0.1,0.1,0.2,0.2,0.3,0.3l3.4,2.3l0.6,1.9
	c0.2,0.6,0.8,1,1.4,0.9l0.3-0.1c0,0-0.1,0.1-0.1,0.1l-1.1,1.4h-2.3c-0.4,0-0.8,0.2-1,0.5l-1.9,2.8l-1.5-0.6l0.6-3.9
	c0.1-0.4-0.1-0.7-0.3-1c-0.2-0.3-0.6-0.4-0.9-0.4h-1.6L57,55.6l3.6-1.3c0.3-0.1,0.6-0.4,0.7-0.7c0.1-0.3,0.1-0.7,0-1l-1.6-3.1
	c-0.3-0.5-0.9-0.8-1.4-0.7L54,49.9l-1.3-3.4c-0.2-0.5-0.6-0.8-1.2-0.8h-4.9c-0.5,0-0.9,0.3-1.1,0.7l-1.9,3.5L39.8,53
	c-0.3,0.2-0.5,0.6-0.5,1V54c-0.4-0.2-0.9-0.1-1.3,0.1l-2.6,1.9l-1-0.5l2.9-3.3c0.2-0.2,0.3-0.4,0.3-0.6l0.4-2.3h4.1
	c0.7,0,1.2-0.6,1.2-1.2v-2.9c0-0.4-0.2-0.8-0.6-1.1l-1.3-0.8l-2.4-6c-0.1-0.2-0.2-0.3-0.3-0.4l-2.5-2.5c-0.1-0.1-0.3-0.3-0.5-0.3
	l-5.9-1.8c-0.1,0-0.2-0.1-0.4-0.1h-4.2c-0.7,0-1.2,0.6-1.2,1.2v0.1l-1.5,0.5c-0.3,0.1-0.5,0.3-0.7,0.5l-0.4,0.7l-4.4,0.7
	c-0.3,0-0.6,0.2-0.8,0.4L16,36.9l-1.7-1.4c-0.3-0.3-0.8-0.3-1.2-0.2l-1.3,0.5l-4.5-1.7c-0.5-0.2-1-0.1-1.4,0.3l-0.5,0.5L2.7,33
	l1.6-3.5h1.3c0.4,0,0.8-0.2,1-0.6c0.2-0.3,0.3-0.8,0.1-1.2l-1.1-2.7l4.6-6.4l2-0.7c0.6-0.2,0.9-0.9,0.8-1.5l-1.9-7.7h0.3
	c0.4,0,0.7-0.2,1-0.5l1.6-2l6.7-0.6l6.1,1.5l0.2,0.7c0.1,0.3,0.3,0.6,0.6,0.7L30,10c0.4,0.2,0.9,0.2,1.3-0.1L33,8.5l1.8,1.3
	c0.5,0.4,1.2,0.3,1.6-0.1L37.3,9l0.4,0.9c0.2,0.3,0.4,0.5,0.8,0.6c0.3,0.1,0.7,0.1,1-0.1l1.3-0.8l1.6,0.4l1.4,1.4
	c0.2,0.2,0.5,0.4,0.9,0.4c0.3,0,0.7-0.1,0.9-0.4l1.2-1.2c0.4-0.4,0.5-1.1,0.1-1.6l-0.7-1l2.2-3.1h2.9l1.5,0.7
	c0.4,0.2,0.8,0.2,1.2-0.1l1.3-0.8c0.4-0.2,0.6-0.6,0.6-1l0.4,0.2c0.4,0.3,1,0.3,1.4-0.1L59,2.4l2.2,0.3l1.7,3l-0.3,0.1
	c-0.6,0.3-0.8,0.9-0.7,1.5l1,3.6c0.1,0.5,0.6,0.9,1.2,0.9h4.1l1.5,7.2c0.1,0.4,0.4,0.8,0.8,0.9c0.4,0.1,0.9,0.1,1.2-0.2l1.5-1.3
	l2.1,1.3c0.3,0.2,0.7,0.2,1,0.1l3.3-1l2.7,3.2c0.4,0.5,1.2,0.6,1.8,0.1l1-0.9l8,4.5l0.2,0.4l-1.4,1C91.4,27.6,91.3,28.3,91.5,28.8z
	 M70.5,57.2l3.5-0.7l0.4,0.2l-0.3,0.5l-2,0.4L70.5,57.2z"/>
</svg>
