<?xml version="1.0" encoding="utf-8"?>
<!-- Generator: Adobe Illustrator 19.0.0, SVG Export Plug-In . SVG Version: 6.00 Build 0)  -->
<svg version="1.1" id="Capa_1" xmlns="http://www.w3.org/2000/svg" xmlns:xlink="http://www.w3.org/1999/xlink" x="0px" y="0px"
	 viewBox="-608.4 17.2 399.6 550.8" style="enable-background:new -608.4 17.2 399.6 550.8;" xml:space="preserve">
<style type="text/css">
	.st0{fill:#AFD755;}
</style>
<g>
	<g>
		<path class="st0" d="M-416.7,431.9c-6.6,0-10.9,0.6-13.4,1.2v85.7c2.5,0.6,6.6,0.6,10.3,0.6c26.8,0.2,44.3-14.6,44.3-45.9
			C-375.3,446.3-391.2,431.9-416.7,431.9z"/>
		<path class="st0" d="M-531.2,431.5c-6,0-10.1,0.6-12.2,1.2v38.7c2.5,0.6,5.6,0.8,9.9,0.8c15.8,0,25.5-8,25.5-21.4
			C-508,438.7-516.4,431.5-531.2,431.5z"/>
		<path class="st0" d="M-208.9,149.2c0-2.5-0.8-5-2.6-7L-317.7,20.9c0,0-0.1,0-0.1-0.1c-0.6-0.7-1.4-1.3-2.1-1.8
			c-0.2-0.1-0.5-0.3-0.7-0.4c-0.7-0.4-1.4-0.7-2.1-0.9c-0.2-0.1-0.4-0.1-0.6-0.2c-0.8-0.2-1.7-0.3-2.5-0.3h-261
			c-11.9,0-21.6,9.7-21.6,21.6v507.6c0,11.9,9.7,21.6,21.6,21.6h356.4c11.9,0,21.6-9.7,21.6-21.6v-396
			C-208.8,150-208.9,149.6-208.9,149.2z M-490.7,481.1c-10.1,9.5-25.1,13.8-42.6,13.8c-3.9,0-7.4-0.2-10.1-0.6v46.8h-29.3V411.9
			c9.1-1.5,22-2.7,40-2.7c18.3,0,31.3,3.5,40,10.5c8.4,6.6,14,17.5,14,30.3C-478.7,462.8-483,473.7-490.7,481.1z M-365.7,525.6
			c-13.8,11.5-34.8,16.9-60.4,16.9c-15.4,0-26.2-1-33.6-1.9V411.9c10.9-1.7,25.1-2.7,40-2.7c24.9,0,41,4.5,53.6,14
			c13.6,10.1,22.2,26.2,22.2,49.4C-344,497.6-353.1,514.9-365.7,525.6z M-244.4,434.4h-50.4v29.9h47v24.1h-47v52.7h-29.7v-131h80.1
			V434.4z M-586.8,384V38.8h250.2v110.5c0,6,4.8,10.8,10.8,10.8h95.4v223.8L-586.8,384L-586.8,384z"/>
		<path class="st0" d="M-297.8,249.3c-0.6-0.1-15.9-1.4-39.2-1.4c-7.3,0-14.7,0.1-22,0.4c-46.1-34.6-83.9-69.3-104.1-88.7
			c0.4-2.1,0.6-3.8,0.7-5.1c2.7-28.2-0.3-47.2-8.8-56.5c-5.6-6.1-13.7-8.1-22.2-5.8c-5.3,1.4-15.1,6.5-18.2,17
			c-3.5,11.5,2.1,25.5,16.7,41.8c0.2,0.2,5.2,5.4,14.2,14.2c-5.9,27.9-21.2,88.1-28.6,117.1c-17.5,9.3-32,20.6-43.3,33.5l-0.7,0.8
			l-0.5,1c-1.2,2.4-6.7,15.1-2.5,25.2c1.9,4.6,5.5,8,10.3,9.8l1.3,0.3c0,0,1.2,0.3,3.2,0.3c9,0,31.2-4.7,43.2-48.7l2.9-11.1
			c41.6-20.2,93.7-26.8,131.4-28.6c19.4,14.4,38.7,27.6,57.4,39.3l0.6,0.4c0.9,0.5,9.1,4.5,18.7,4.5l0,0c13.7,0,23.8-8.4,27.5-23.1
			l0.2-1c1-8.4-1.1-16-6.1-21.9C-276.3,250.5-296,249.4-297.8,249.3z M-541.2,336.9c-0.1-0.1-0.1-0.2-0.2-0.3
			c-0.9-2.2,0.2-7.4,1.8-11.2c6.8-7.6,14.9-14.6,24.4-20.8C-524.4,334.2-537.7,336.8-541.2,336.9z M-483,139.9L-483,139.9
			c-14.1-15.7-13.9-23.4-13.1-26c1.2-4.4,6.8-6,6.9-6c2.8-0.8,4.5-0.6,6.1,1.1c3.5,3.8,6.4,15.2,5.2,36.2
			C-481.2,141.8-483,139.9-483,139.9z M-490.3,273.3l0.2-0.9l0,0c7-27.6,17.2-68,23-93.9l0.2,0.2v-0.1
			c18.9,17.8,47.9,43.8,82.6,70.9h-0.4l0.6,0.4C-416.7,252.6-455.8,259-490.3,273.3z M-275.6,282.3c-2.5,9.1-7.3,10.4-11.7,10.4l0,0
			c-5.1,0-10-2.1-11.1-2.6c-12.7-8-25.8-16.7-38.9-26c0.1,0,0.2,0,0.3,0c22.5,0,37.6,1.4,38.2,1.4c3.8,0.1,15.7,1.9,20.8,7.9
			C-276,275.8-275.2,278.6-275.6,282.3z"/>
	</g>
</g>
</svg>
